# Tight settings for increased accuracy, e.g. when investigating
# weak interactions or conformational equilibria
! def2-QZVP TightSCF NoLibInt def2/JK RIJK

%maxcore 2000
* xyz 0 1
C     1.3892224    0.0000000    0.0000000
C     0.6946112    1.2031019    0.0000000
C    -0.6946112    1.2031019    0.0000000
C    -1.3892224    0.0000000    0.0000000
C    -0.6946112   -1.2031019    0.0000000
C     0.6946112   -1.2031019    0.0000000
H     2.4672450    0.0000000    0.0000000
H     1.2336225    2.1366969    0.0000000
H    -1.2336225    2.1366969    0.0000000
H    -2.4672450    0.0000000    0.0000000
H    -1.2336225   -2.1366969    0.0000000
H     1.2336225   -2.1366969    0.0000000
*

