-----------------------------------------------------------
----------------------- PROPERTIES ------------------------
-----------------------------------------------------------
                    PROPERTY:
        Name:                SCF_Energy                      
        Comment:             The SCF Energy                                                                                                              
        Geometry:            1
        Type:                DOUBLE
        Value:               -230.7967086708687248
-----------------------------------------------------------
----------------------- GEOMETRIES ------------------------
-----------------------------------------------------------
                    GEOMETRY:    1
        Number of atoms:    12
        Coordinates:
            C      1.389222400000    0.000000000000    0.000000000000
            C      0.694611200000    1.203101900000    0.000000000000
            C     -0.694611200000    1.203101900000    0.000000000000
            C     -1.389222400000    0.000000000000    0.000000000000
            C     -0.694611200000   -1.203101900000    0.000000000000
            C      0.694611200000   -1.203101900000    0.000000000000
            H      2.467245000000    0.000000000000    0.000000000000
            H      1.233622500000    2.136696900000    0.000000000000
            H     -1.233622500000    2.136696900000    0.000000000000
            H     -2.467245000000    0.000000000000    0.000000000000
            H     -1.233622500000   -2.136696900000    0.000000000000
            H      1.233622500000   -2.136696900000    0.000000000000
