
                                 *****************
                                 * O   R   C   A *
                                 *****************

           --- An Ab Initio, DFT and Semiempirical electronic structure package ---

                  #######################################################
                  #                        -***-                        #
                  #  Department of molecular theory and spectroscopy    #
                  #              Directorship: Frank Neese              #
                  # Max Planck Institute for Chemical Energy Conversion #
                  #                  D-45470 Muelheim/Ruhr              #
                  #                       Germany                       #
                  #                                                     #
                  #                  All rights reserved                #
                  #                        -***-                        #
                  #######################################################


                         Program Version 4.0.1 -  RELEASE  -


 With contributions from (in alphabetic order):
   Daniel Aravena         : Magnetic Properties
   Michael Atanasov       : Ab Initio Ligand Field Theory
   Ute Becker             : Parallelization
   Martin Brehm           : Molecular dynamics
   Dmytro Bykov           : SCF Hessian
   Vijay G. Chilkuri      : MRCI spin determinant printing
   Dipayan Datta          : RHF DLPNO-CCSD density
   Achintya Kumar Dutta   : EOM-CC, STEOM-CC
   Dmitry Ganyushin       : Spin-Orbit,Spin-Spin,Magnetic field MRCI
   Yang Guo               : DLPNO-NEVPT2, CIM, IAO-localization
   Andreas Hansen         : Spin unrestricted coupled pair/coupled cluster methods
   Lee Huntington         : MR-EOM, pCC
   Robert Izsak           : Overlap fitted RIJCOSX, COSX-SCS-MP3, EOM
   Christian Kollmar      : KDIIS, OOCD, Brueckner-CCSD(T), CCSD density
   Simone Kossmann        : Meta GGA functionals, TD-DFT gradient, OOMP2, MP2 Hessian
   Martin Krupicka        : AUTO-CI
   Dagmar Lenk            : GEPOL surface
   Dimitrios Liakos       : Extrapolation schemes; parallel MDCI
   Dimitrios Manganas     : ROCIS; embedding schemes
   Dimitrios Pantazis     : SARC Basis sets
   Taras Petrenko         : DFT Hessian,TD-DFT gradient, ASA, ECA, R-Raman, ABS, FL, XAS/XES, NRVS
   Peter Pinski           : DLPNO-MP2
   Christoph Reimann      : Effective Core Potentials
   Marius Retegan         : Local ZFS, SOC
   Christoph Riplinger    : Optimizer, TS searches, QM/MM, DLPNO-CCSD(T), (RO)-DLPNO pert. Triples
   Tobias Risthaus        : Range-separated hybrids, TD-DFT gradient, RPA, STAB
   Michael Roemelt        : Restricted open shell CIS
   Masaaki Saitow         : Open-shell DLPNO
   Barbara Sandhoefer     : DKH picture change effects
   Kantharuban Sivalingam : CASSCF convergence, NEVPT2, FIC-MRCI
   Georgi Stoychev        : AutoAux
   Boris Wezisla          : Elementary symmetry handling
   Frank Wennmohs         : Technical directorship


 We gratefully acknowledge several colleagues who have allowed us to
 interface, adapt or use parts of their codes:
   Stefan Grimme, W. Hujo, H. Kruse,             : VdW corrections, initial TS optimization,
                  C. Bannwarth                     DFT functionals, gCP, sTDA/sTD-DF
   Ed Valeev                                     : LibInt (2-el integral package), F12 methods
   Garnet Chan, S. Sharma, J. Yang, R. Olivares  : DMRG
   Ulf Ekstrom                                   : XCFun DFT Library
   Mihaly Kallay                                 : mrcc  (arbitrary order and MRCC methods)
   Andreas Klamt, Michael Diedenhofen            : otool_cosmo (COSMO solvation model)
   Jiri Pittner, Ondrej Demel                    : Mk-CCSD
   Frank Weinhold                                : gennbo (NPA and NBO analysis)
   Christopher J. Cramer and Donald G. Truhlar   : smd solvation model


 Your calculation uses the libint2 library for the computation of 2-el integrals
 For citations please refer to: http://libint.valeyev.net

 This ORCA versions uses:
   CBLAS   interface :  Fast vector & matrix operations
   LAPACKE interface :  Fast linear algebra routines
   SCALAPACK package :  Parallel linear algebra routines


Your calculation utilizes the basis: def2-QZVP
   F. Weigend and R. Ahlrichs, Phys. Chem. Chem. Phys. 7, 3297 (2005).

================================================================================
                                        WARNINGS
                       Please study these warnings very carefully!
================================================================================

Warning: TCutStore was < 0. Adjusted to Thresh (uncritical)

INFO   : the flag for use of LIBINT has been found!

================================================================================
                                       INPUT FILE
================================================================================
NAME = scf.inp
|  1> # Tight settings for increased accuracy, e.g. when investigating
|  2> # weak interactions or conformational equilibria
|  3> ! def2-QZVP TightSCF
|  4> 
|  5> %maxcore 2000
|  6> * xyz 0 1
|  7> C     1.3892224    0.0000000    0.0000000
|  8> C     0.6946112    1.2031019    0.0000000
|  9> C    -0.6946112    1.2031019    0.0000000
| 10> C    -1.3892224    0.0000000    0.0000000
| 11> C    -0.6946112   -1.2031019    0.0000000
| 12> C     0.6946112   -1.2031019    0.0000000
| 13> H     2.4672450    0.0000000    0.0000000
| 14> H     1.2336225    2.1366969    0.0000000
| 15> H    -1.2336225    2.1366969    0.0000000
| 16> H    -2.4672450    0.0000000    0.0000000
| 17> H    -1.2336225   -2.1366969    0.0000000
| 18> H     1.2336225   -2.1366969    0.0000000
| 19> *
| 20> 
| 21> 
| 22>                          ****END OF INPUT****
================================================================================

                       ****************************
                       * Single Point Calculation *
                       ****************************

---------------------------------
CARTESIAN COORDINATES (ANGSTROEM)
---------------------------------
  C      1.389222    0.000000    0.000000
  C      0.694611    1.203102    0.000000
  C     -0.694611    1.203102    0.000000
  C     -1.389222    0.000000    0.000000
  C     -0.694611   -1.203102    0.000000
  C      0.694611   -1.203102    0.000000
  H      2.467245    0.000000    0.000000
  H      1.233622    2.136697    0.000000
  H     -1.233622    2.136697    0.000000
  H     -2.467245    0.000000    0.000000
  H     -1.233622   -2.136697    0.000000
  H      1.233622   -2.136697    0.000000

----------------------------
CARTESIAN COORDINATES (A.U.)
----------------------------
  NO LB      ZA    FRAG     MASS         X           Y           Z
   0 C     6.0000    0    12.011    2.625250    0.000000    0.000000
   1 C     6.0000    0    12.011    1.312625    2.273533    0.000000
   2 C     6.0000    0    12.011   -1.312625    2.273533    0.000000
   3 C     6.0000    0    12.011   -2.625250    0.000000    0.000000
   4 C     6.0000    0    12.011   -1.312625   -2.273533    0.000000
   5 C     6.0000    0    12.011    1.312625   -2.273533    0.000000
   6 H     1.0000    0     1.008    4.662417    0.000000    0.000000
   7 H     1.0000    0     1.008    2.331209    4.037772    0.000000
   8 H     1.0000    0     1.008   -2.331209    4.037772    0.000000
   9 H     1.0000    0     1.008   -4.662417    0.000000    0.000000
  10 H     1.0000    0     1.008   -2.331209   -4.037772    0.000000
  11 H     1.0000    0     1.008    2.331209   -4.037772    0.000000

--------------------------------
INTERNAL COORDINATES (ANGSTROEM)
--------------------------------
 C      0   0   0     0.000000000000     0.00000000     0.00000000
 C      1   0   0     1.389222408741     0.00000000     0.00000000
 C      2   1   0     1.389222400000   119.99999979     0.00000000
 C      3   2   1     1.389222408741   119.99999979     0.00000000
 C      4   3   2     1.389222408741   120.00000042     0.00000000
 C      5   4   3     1.389222400000   119.99999979     0.00000000
 H      1   2   3     1.078022600000   119.99999979   180.00000085
 H      2   1   3     1.078022636846   120.00000134   180.00000000
 H      3   2   1     1.078022636846   119.99999887   180.00000000
 H      4   3   2     1.078022600000   119.99999979   180.00000085
 H      5   4   3     1.078022636846   120.00000134   180.00000000
 H      6   5   4     1.078022636846   119.99999887   180.00000000

---------------------------
INTERNAL COORDINATES (A.U.)
---------------------------
 C      0   0   0     0.000000000000     0.00000000     0.00000000
 C      1   0   0     2.625249891628     0.00000000     0.00000000
 C      2   1   0     2.625249875109   119.99999979     0.00000000
 C      3   2   1     2.625249891628   119.99999979     0.00000000
 C      4   3   2     2.625249891628   120.00000042     0.00000000
 C      5   4   3     2.625249875109   119.99999979     0.00000000
 H      1   2   3     2.037167480178   119.99999979   180.00000085
 H      2   1   3     2.037167549807   120.00000134   180.00000000
 H      3   2   1     2.037167549807   119.99999887   180.00000000
 H      4   3   2     2.037167480178   119.99999979   180.00000085
 H      5   4   3     2.037167549807   120.00000134   180.00000000
 H      6   5   4     2.037167549807   119.99999887   180.00000000

---------------------
BASIS SET INFORMATION
---------------------
There are 2 groups of distinct atoms

 Group   1 Type C   : 15s8p3d2f1g contracted to 7s4p3d2f1g pattern {8211111/5111/111/11/1}
 Group   2 Type H   : 7s3p2d1f contracted to 4s3p2d1f pattern {4111/111/11/1}

Atom   0C    basis set group =>   1
Atom   1C    basis set group =>   1
Atom   2C    basis set group =>   1
Atom   3C    basis set group =>   1
Atom   4C    basis set group =>   1
Atom   5C    basis set group =>   1
Atom   6H    basis set group =>   2
Atom   7H    basis set group =>   2
Atom   8H    basis set group =>   2
Atom   9H    basis set group =>   2
Atom  10H    basis set group =>   2
Atom  11H    basis set group =>   2
------------------------------------------------------------------------------
                           ORCA GTO INTEGRAL CALCULATION
------------------------------------------------------------------------------

                         BASIS SET STATISTICS AND STARTUP INFO

 # of primitive gaussian shells          ...  252
 # of primitive gaussian functions       ...  660
 # of contracted shells                  ...  162
 # of contracted basis functions         ...  522
 Highest angular momentum                ...    4
 Maximum contraction depth               ...    8
 Integral package used                   ... LIBINT
 Integral threshhold            Thresh   ...  2.500e-11
 Primitive cut-off              TCut     ...  2.500e-12


------------------------------ INTEGRAL EVALUATION ----------------------------


 * One electron integrals 
 Pre-screening matrix                    ... done
 Shell pair data                         ... done (   0.005 sec)

-------------------------------------------------------------------------------
                                 ORCA SCF
-------------------------------------------------------------------------------

------------
SCF SETTINGS
------------
Hamiltonian:
 Ab initio Hamiltonian  Method          .... Hartree-Fock(GTOs)


General Settings:
 Integral files         IntName         .... scf
 Hartree-Fock type      HFTyp           .... RHF
 Total Charge           Charge          ....    0
 Multiplicity           Mult            ....    1
 Number of Electrons    NEL             ....   42
 Basis Dimension        Dim             ....  522
 Nuclear Repulsion      ENuc            ....    204.3604390698 Eh

Convergence Acceleration:
 DIIS                   CNVDIIS         .... on
   Start iteration      DIISMaxIt       ....    12
   Startup error        DIISStart       ....  0.200000
   # of expansion vecs  DIISMaxEq       ....     5
   Bias factor          DIISBfac        ....   1.050
   Max. coefficient     DIISMaxC        ....  10.000
 Newton-Raphson         CNVNR           .... off
 SOSCF                  CNVSOSCF        .... on
   Start iteration      SOSCFMaxIt      ....   150
   Startup grad/error   SOSCFStart      ....  0.003300
 Level Shifting         CNVShift        .... on
   Level shift para.    LevelShift      ....    0.2500
   Turn off err/grad.   ShiftErr        ....    0.0010
 Zerner damping         CNVZerner       .... off
 Static damping         CNVDamp         .... on
   Fraction old density DampFac         ....    0.7000
   Max. Damping (<1)    DampMax         ....    0.9800
   Min. Damping (>=0)   DampMin         ....    0.0000
   Turn off err/grad.   DampErr         ....    0.1000
 Fernandez-Rico         CNVRico         .... off

SCF Procedure:
 Maximum # iterations   MaxIter         ....   125
 SCF integral mode      SCFMode         .... Direct
   Integral package                     .... LIBINT
 Reset frequeny         DirectResetFreq ....    20
 Integral Threshold     Thresh          ....  2.500e-11 Eh
 Primitive CutOff       TCut            ....  2.500e-12 Eh

Convergence Tolerance:
 Convergence Check Mode ConvCheckMode   .... Total+1el-Energy
 Convergence forced     ConvForced      .... 0
 Energy Change          TolE            ....  1.000e-08 Eh
 1-El. energy change                    ....  1.000e-05 Eh
 Orbital Gradient       TolG            ....  1.000e-05
 Orbital Rotation angle TolX            ....  1.000e-05
 DIIS Error             TolErr          ....  5.000e-07


Diagonalization of the overlap matrix:
Smallest eigenvalue                        ... 6.889e-06
Time for diagonalization                   ...    0.062 sec
Threshold for overlap eigenvalues          ... 1.000e-08
Number of eigenvalues below threshold      ... 0
Time for construction of square roots      ...    0.017 sec
Total time needed                          ...    0.081 sec

-------------------
DFT GRID GENERATION
-------------------

General Integration Accuracy     IntAcc      ...  4.340
Radial Grid Type                 RadialGrid  ... Gauss-Chebyshev
Angular Grid (max. acc.)         AngularGrid ... Lebedev-110
Angular grid pruning method      GridPruning ... 3 (G Style)
Weight generation scheme         WeightScheme... Becke
Basis function cutoff            BFCut       ...    1.0000e-11
Integration weight cutoff        WCut        ...    1.0000e-14
Grids for H and He will be reduced by one unit

# of grid points (after initial pruning)     ...  14700 (   0.0 sec)
# of grid points (after weights+screening)   ...  13736 (   0.0 sec)
nearest neighbour list constructed           ...    0.0 sec
Grid point re-assignment to atoms done       ...    0.0 sec
Grid point division into batches done        ...    0.0 sec
Reduced shell lists constructed in    0.4 sec

Total number of grid points                  ...    13736
Total number of batches                      ...      222
Average number of points per batch           ...       61
Average number of grid points per atom       ...     1145
Average number of shells per batch           ...   109.37 (67.51%)
Average number of basis functions per batch  ...   366.13 (70.14%)
Average number of large shells per batch     ...    87.41 (79.92%)
Average number of large basis fcns per batch ...   288.98 (78.93%)
Maximum spatial batch extension              ...  18.02, 20.26, 25.60 au
Average spatial batch extension              ...   3.75,  4.10,  5.27 au

Time for grid setup =    0.367 sec

------------------------------
INITIAL GUESS: MODEL POTENTIAL
------------------------------
Loading Hartree-Fock densities                     ... done
Calculating cut-offs                               ... done
Setting up the integral package                    ... done
Initializing the effective Hamiltonian             ... done
Starting the Coulomb interaction                   ... done (   0.5 sec)
Reading the grid                                   ... done
Mapping shells                                     ... done
Starting the XC term evaluation                    ... done (   0.6 sec)
Transforming the Hamiltonian                       ... done (   0.0 sec)
Diagonalizing the Hamiltonian                      ... done (   0.1 sec)
Back transforming the eigenvectors                 ... done (   0.0 sec)
Now organizing SCF variables                       ... done
                      ------------------
                      INITIAL GUESS DONE (   1.6 sec)
                      ------------------
--------------
SCF ITERATIONS
--------------
ITER       Energy         Delta-E        Max-DP      RMS-DP      [F,P]     Damp
               ***  Starting incremental Fock matrix formation  ***
  0   -230.5132514730   0.000000000000 0.01468316  0.00034670  0.2814995 0.7000
  1   -230.6102117328  -0.096960259807 0.01225456  0.00027700  0.2103486 0.7000
                               ***Turning on DIIS***
  2   -230.6705150148  -0.060303281974 0.00873420  0.00019511  0.1564668 0.7000
  3   -231.4681698879  -0.797654873077 0.00697875  0.00013766  0.1157844 0.7000
  4   -231.3561595744   0.112010313462 0.01772296  0.00033666  0.0827981 0.0000
  5   -230.8175651810   0.538594393409 0.00087973  0.00002092  0.0048415 0.0000
                      *** Initiating the SOSCF procedure ***
                           *** Shutting down DIIS ***
                      *** Re-Reading the Fockian *** 
                      *** Removing any level shift *** 
ITER      Energy       Delta-E        Grad      Rot      Max-DP    RMS-DP
  6   -230.79940656   0.0181586165  0.000963  0.000963  0.000485  0.000008
               *** Restarting incremental Fock matrix formation ***
  7   -230.79686084   0.0025457261  0.000342  0.000326  0.000369  0.000005
  8   -230.79686295  -0.0000021118  0.000123  0.000209  0.000150  0.000003
  9   -230.79686320  -0.0000002535  0.000028  0.000029  0.000015  0.000000
 10   -230.79686322  -0.0000000167  0.000004  0.000004  0.000004  0.000000
                 **** Energy Check signals convergence ****
              ***Rediagonalizing the Fockian in SOSCF/NRSCF***

               *****************************************************
               *                     SUCCESS                       *
               *           SCF CONVERGED AFTER  11 CYCLES          *
               *****************************************************


----------------
TOTAL SCF ENERGY
----------------

Total Energy       :         -230.79686322 Eh           -6280.30193 eV

Components:
Nuclear Repulsion  :          204.36043907 Eh            5560.93026 eV
Electronic Energy  :         -435.15730229 Eh          -11841.23219 eV
One Electron Energy:         -715.21725245 Eh          -19462.05087 eV
Two Electron Energy:          280.05995016 Eh            7620.81868 eV

Virial components:
Potential Energy   :         -461.40702997 Eh          -12555.52360 eV
Kinetic Energy     :          230.61016675 Eh            6275.22166 eV
Virial Ratio       :            2.00080958


---------------
SCF CONVERGENCE
---------------

  Last Energy change         ...   -9.1944e-10  Tolerance :   1.0000e-08
  Last MAX-Density change    ...    9.7328e-07  Tolerance :   1.0000e-07
  Last RMS-Density change    ...    1.8617e-08  Tolerance :   5.0000e-09
  Last Orbital Gradient      ...    3.7486e-07  Tolerance :   1.0000e-05
  Last Orbital Rotation      ...    6.0402e-07  Tolerance :   1.0000e-05

             **** THE GBW FILE WAS UPDATED (scf.gbw) ****
             **** DENSITY FILE WAS UPDATED (scf.scfp.tmp) ****
             **** ENERGY FILE WAS UPDATED (scf.en.tmp) ****
----------------
ORBITAL ENERGIES
----------------

  NO   OCC          E(Eh)            E(eV) 
   0   2.0000     -11.233034      -305.6664 
   1   2.0000     -11.232443      -305.6503 
   2   2.0000     -11.232443      -305.6503 
   3   2.0000     -11.231170      -305.6157 
   4   2.0000     -11.231170      -305.6157 
   5   2.0000     -11.230546      -305.5987 
   6   2.0000      -1.152509       -31.3614 
   7   2.0000      -1.015887       -27.6437 
   8   2.0000      -1.015887       -27.6437 
   9   2.0000      -0.824975       -22.4487 
  10   2.0000      -0.824975       -22.4487 
  11   2.0000      -0.711731       -19.3672 
  12   2.0000      -0.644072       -17.5261 
  13   2.0000      -0.620649       -16.8887 
  14   2.0000      -0.589009       -16.0278 
  15   2.0000      -0.589009       -16.0278 
  16   2.0000      -0.504113       -13.7176 
  17   2.0000      -0.495134       -13.4733 
  18   2.0000      -0.495134       -13.4733 
  19   2.0000      -0.337393        -9.1809 
  20   2.0000      -0.337393        -9.1809 
  21   0.0000       0.111891         3.0447 
  22   0.0000       0.118627         3.2280 
  23   0.0000       0.118627         3.2280 
  24   0.0000       0.124594         3.3904 
  25   0.0000       0.124594         3.3904 
  26   0.0000       0.154624         4.2075 
  27   0.0000       0.154624         4.2075 
  28   0.0000       0.188057         5.1173 
  29   0.0000       0.215605         5.8669 
  30   0.0000       0.222568         6.0564 
  31   0.0000       0.247617         6.7380 
  32   0.0000       0.249174         6.7804 
  33   0.0000       0.249174         6.7804 
  34   0.0000       0.258294         7.0285 
  35   0.0000       0.258295         7.0286 
  36   0.0000       0.265773         7.2321 
  37   0.0000       0.265773         7.2321 
  38   0.0000       0.285843         7.7782 
  39   0.0000       0.337440         9.1822 
  40   0.0000       0.337440         9.1822 
  41   0.0000       0.358786         9.7631 
  42   0.0000       0.379903        10.3377 
  43   0.0000       0.379903        10.3377 
  44   0.0000       0.413360        11.2481 
  45   0.0000       0.413360        11.2481 
  46   0.0000       0.415833        11.3154 
  47   0.0000       0.435231        11.8432 
  48   0.0000       0.435231        11.8432 
  49   0.0000       0.446367        12.1463 
  50   0.0000       0.450301        12.2533 
  51   0.0000       0.487665        13.2700 
  52   0.0000       0.487665        13.2700 
  53   0.0000       0.491959        13.3869 
  54   0.0000       0.499753        13.5990 
  55   0.0000       0.504434        13.7264 
  56   0.0000       0.549333        14.9481 
  57   0.0000       0.549333        14.9481 
  58   0.0000       0.557453        15.1691 
  59   0.0000       0.557453        15.1691 
  60   0.0000       0.620403        16.8820 
  61   0.0000       0.620404        16.8821 
  62   0.0000       0.658955        17.9311 
  63   0.0000       0.658955        17.9311 
  64   0.0000       0.688254        18.7283 
  65   0.0000       0.688254        18.7283 
  66   0.0000       0.697057        18.9679 
  67   0.0000       0.709165        19.2974 
  68   0.0000       0.714282        19.4366 
  69   0.0000       0.715414        19.4674 
  70   0.0000       0.791349        21.5337 
  71   0.0000       0.791349        21.5337 
  72   0.0000       0.797111        21.6905 
  73   0.0000       0.845254        23.0005 
  74   0.0000       0.845254        23.0005 
  75   0.0000       0.855381        23.2761 
  76   0.0000       0.893081        24.3020 
  77   0.0000       0.894672        24.3453 
  78   0.0000       0.920381        25.0448 
  79   0.0000       0.926796        25.2194 
  80   0.0000       0.926796        25.2194 
  81   0.0000       0.937657        25.5149 
  82   0.0000       0.937657        25.5149 
  83   0.0000       0.942111        25.6362 
  84   0.0000       0.946510        25.7559 
  85   0.0000       0.946510        25.7559 
  86   0.0000       0.948075        25.7984 
  87   0.0000       0.967382        26.3238 
  88   0.0000       0.967382        26.3238 
  89   0.0000       1.048637        28.5349 
  90   0.0000       1.048637        28.5349 
  91   0.0000       1.051666        28.6173 
  92   0.0000       1.076965        29.3057 
  93   0.0000       1.076965        29.3057 
  94   0.0000       1.079943        29.3867 
  95   0.0000       1.079943        29.3867 
  96   0.0000       1.101048        29.9610 
  97   0.0000       1.104484        30.0545 
  98   0.0000       1.104485        30.0546 
  99   0.0000       1.138428        30.9782 
 100   0.0000       1.167775        31.7768 
 101   0.0000       1.167776        31.7768 
 102   0.0000       1.178477        32.0680 
 103   0.0000       1.178477        32.0680 
 104   0.0000       1.178899        32.0795 
 105   0.0000       1.197744        32.5923 
 106   0.0000       1.197744        32.5923 
 107   0.0000       1.244935        33.8764 
 108   0.0000       1.244935        33.8764 
 109   0.0000       1.324015        36.0283 
 110   0.0000       1.324016        36.0283 
 111   0.0000       1.324187        36.0330 
 112   0.0000       1.324187        36.0330 
 113   0.0000       1.332154        36.2498 
 114   0.0000       1.345575        36.6150 
 115   0.0000       1.345575        36.6150 
 116   0.0000       1.371310        37.3152 
 117   0.0000       1.422875        38.7184 
 118   0.0000       1.422875        38.7184 
 119   0.0000       1.423917        38.7467 
 120   0.0000       1.464374        39.8476 
 121   0.0000       1.494593        40.6699 
 122   0.0000       1.494685        40.6724 
 123   0.0000       1.535480        41.7825 
 124   0.0000       1.612769        43.8857 
 125   0.0000       1.612770        43.8857 
 126   0.0000       1.707086        46.4522 
 127   0.0000       1.715068        46.6694 
 128   0.0000       1.715069        46.6694 
 129   0.0000       1.754034        47.7297 
 130   0.0000       1.769901        48.1615 
 131   0.0000       1.781445        48.4756 
 132   0.0000       1.803971        49.0885 
 133   0.0000       1.819588        49.5135 
 134   0.0000       1.819588        49.5135 
 135   0.0000       1.871851        50.9357 
 136   0.0000       1.941894        52.8416 
 137   0.0000       1.965438        53.4823 
 138   0.0000       1.965438        53.4823 
 139   0.0000       1.979071        53.8533 
 140   0.0000       1.990060        54.1523 
 141   0.0000       1.990060        54.1523 
 142   0.0000       2.013440        54.7885 
 143   0.0000       2.013440        54.7885 
 144   0.0000       2.023073        55.0506 
 145   0.0000       2.023073        55.0506 
 146   0.0000       2.047304        55.7100 
 147   0.0000       2.050861        55.8068 
 148   0.0000       2.106547        57.3221 
 149   0.0000       2.106547        57.3221 
 150   0.0000       2.110784        57.4373 
 151   0.0000       2.177258        59.2462 
 152   0.0000       2.177258        59.2462 
 153   0.0000       2.182462        59.3878 
 154   0.0000       2.182462        59.3878 
 155   0.0000       2.213541        60.2335 
 156   0.0000       2.213541        60.2335 
 157   0.0000       2.222042        60.4648 
 158   0.0000       2.222042        60.4648 
 159   0.0000       2.240843        60.9764 
 160   0.0000       2.253011        61.3075 
 161   0.0000       2.253011        61.3075 
 162   0.0000       2.276369        61.9432 
 163   0.0000       2.276369        61.9432 
 164   0.0000       2.286878        62.2291 
 165   0.0000       2.364227        64.3339 
 166   0.0000       2.364229        64.3339 
 167   0.0000       2.391616        65.0792 
 168   0.0000       2.405003        65.4435 
 169   0.0000       2.405003        65.4435 
 170   0.0000       2.410668        65.5976 
 171   0.0000       2.410668        65.5976 
 172   0.0000       2.410846        65.6025 
 173   0.0000       2.493774        67.8590 
 174   0.0000       2.493774        67.8590 
 175   0.0000       2.497095        67.9494 
 176   0.0000       2.497095        67.9494 
 177   0.0000       2.504935        68.1627 
 178   0.0000       2.504935        68.1627 
 179   0.0000       2.547832        69.3300 
 180   0.0000       2.548898        69.3590 
 181   0.0000       2.549592        69.3779 
 182   0.0000       2.592209        70.5376 
 183   0.0000       2.592209        70.5376 
 184   0.0000       2.621063        71.3228 
 185   0.0000       2.629562        71.5540 
 186   0.0000       2.669634        72.6444 
 187   0.0000       2.716087        73.9085 
 188   0.0000       2.716087        73.9085 
 189   0.0000       2.716420        73.9176 
 190   0.0000       2.716421        73.9176 
 191   0.0000       2.720799        74.0367 
 192   0.0000       2.761956        75.1567 
 193   0.0000       2.761956        75.1567 
 194   0.0000       2.766112        75.2697 
 195   0.0000       2.776842        75.5617 
 196   0.0000       2.776842        75.5617 
 197   0.0000       2.815254        76.6069 
 198   0.0000       2.815254        76.6070 
 199   0.0000       2.831381        77.0458 
 200   0.0000       2.831382        77.0458 
 201   0.0000       2.856768        77.7366 
 202   0.0000       2.890613        78.6576 
 203   0.0000       2.890613        78.6576 
 204   0.0000       2.909026        79.1586 
 205   0.0000       2.913681        79.2853 
 206   0.0000       2.937620        79.9367 
 207   0.0000       2.961578        80.5886 
 208   0.0000       2.961578        80.5886 
 209   0.0000       2.967681        80.7547 
 210   0.0000       2.967681        80.7547 
 211   0.0000       2.976478        80.9941 
 212   0.0000       3.014269        82.0224 
 213   0.0000       3.055946        83.1565 
 214   0.0000       3.055946        83.1565 
 215   0.0000       3.056020        83.1585 
 216   0.0000       3.077553        83.7445 
 217   0.0000       3.077553        83.7445 
 218   0.0000       3.097362        84.2835 
 219   0.0000       3.097363        84.2835 
 220   0.0000       3.126461        85.0753 
 221   0.0000       3.178040        86.4789 
 222   0.0000       3.203091        87.1605 
 223   0.0000       3.265691        88.8640 
 224   0.0000       3.265691        88.8640 
 225   0.0000       3.299790        89.7918 
 226   0.0000       3.344708        91.0141 
 227   0.0000       3.344708        91.0141 
 228   0.0000       3.418997        93.0356 
 229   0.0000       3.418997        93.0356 
 230   0.0000       3.463971        94.2594 
 231   0.0000       3.463971        94.2594 
 232   0.0000       3.516299        95.6834 
 233   0.0000       3.523177        95.8705 
 234   0.0000       3.535974        96.2187 
 235   0.0000       3.621692        98.5512 
 236   0.0000       3.621692        98.5512 
 237   0.0000       3.709265       100.9342 
 238   0.0000       3.712010       101.0089 
 239   0.0000       3.712010       101.0089 
 240   0.0000       3.754916       102.1765 
 241   0.0000       3.754916       102.1765 
 242   0.0000       3.770568       102.6024 
 243   0.0000       3.785161       102.9995 
 244   0.0000       3.813770       103.7779 
 245   0.0000       3.814379       103.7945 
 246   0.0000       3.814379       103.7945 
 247   0.0000       3.814956       103.8102 
 248   0.0000       3.814956       103.8102 
 249   0.0000       3.893640       105.9513 
 250   0.0000       3.930582       106.9566 
 251   0.0000       3.930582       106.9566 
 252   0.0000       3.934893       107.0739 
 253   0.0000       3.934893       107.0739 
 254   0.0000       4.058409       110.4349 
 255   0.0000       4.183516       113.8393 
 256   0.0000       4.183516       113.8393 
 257   0.0000       4.185251       113.8865 
 258   0.0000       4.185251       113.8865 
 259   0.0000       4.238912       115.3467 
 260   0.0000       4.238912       115.3467 
 261   0.0000       4.365484       118.7909 
 262   0.0000       4.371667       118.9591 
 263   0.0000       4.401473       119.7702 
 264   0.0000       4.437624       120.7539 
 265   0.0000       4.437624       120.7539 
 266   0.0000       4.444971       120.9538 
 267   0.0000       4.497349       122.3791 
 268   0.0000       4.497349       122.3791 
 269   0.0000       4.654106       126.6446 
 270   0.0000       4.665939       126.9667 
 271   0.0000       4.837707       131.6407 
 272   0.0000       4.837707       131.6407 
 273   0.0000       4.902848       133.4133 
 274   0.0000       4.902848       133.4133 
 275   0.0000       4.967008       135.1592 
 276   0.0000       5.069780       137.9557 
 277   0.0000       5.074160       138.0749 
 278   0.0000       5.079847       138.2297 
 279   0.0000       5.079847       138.2297 
 280   0.0000       5.143726       139.9679 
 281   0.0000       5.224819       142.1746 
 282   0.0000       5.227843       142.2568 
 283   0.0000       5.265040       143.2690 
 284   0.0000       5.265040       143.2690 
 285   0.0000       5.358913       145.8234 
 286   0.0000       5.371199       146.1578 
 287   0.0000       5.371199       146.1578 
 288   0.0000       5.425268       147.6290 
 289   0.0000       5.425268       147.6290 
 290   0.0000       5.496544       149.5686 
 291   0.0000       5.496544       149.5686 
 292   0.0000       5.541252       150.7851 
 293   0.0000       5.602116       152.4413 
 294   0.0000       5.602116       152.4413 
 295   0.0000       5.633251       153.2885 
 296   0.0000       5.633251       153.2885 
 297   0.0000       5.700913       155.1297 
 298   0.0000       5.700913       155.1297 
 299   0.0000       5.708880       155.3465 
 300   0.0000       5.718942       155.6203 
 301   0.0000       5.718942       155.6203 
 302   0.0000       5.743923       156.3001 
 303   0.0000       5.743923       156.3001 
 304   0.0000       5.835245       158.7851 
 305   0.0000       5.838928       158.8853 
 306   0.0000       5.849715       159.1788 
 307   0.0000       5.849715       159.1788 
 308   0.0000       5.854090       159.2979 
 309   0.0000       5.867708       159.6685 
 310   0.0000       5.867708       159.6685 
 311   0.0000       5.883834       160.1073 
 312   0.0000       5.996297       163.1675 
 313   0.0000       6.060957       164.9270 
 314   0.0000       6.060957       164.9270 
 315   0.0000       6.106806       166.1746 
 316   0.0000       6.106806       166.1746 
 317   0.0000       6.165308       167.7665 
 318   0.0000       6.168860       167.8632 
 319   0.0000       6.189343       168.4206 
 320   0.0000       6.189343       168.4206 
 321   0.0000       6.234996       169.6629 
 322   0.0000       6.234996       169.6629 
 323   0.0000       6.251643       170.1159 
 324   0.0000       6.278474       170.8460 
 325   0.0000       6.278474       170.8460 
 326   0.0000       6.289638       171.1498 
 327   0.0000       6.353127       172.8774 
 328   0.0000       6.353127       172.8774 
 329   0.0000       6.355566       172.9437 
 330   0.0000       6.355566       172.9437 
 331   0.0000       6.380189       173.6138 
 332   0.0000       6.432666       175.0418 
 333   0.0000       6.432667       175.0418 
 334   0.0000       6.439028       175.2148 
 335   0.0000       6.439028       175.2148 
 336   0.0000       6.444676       175.3686 
 337   0.0000       6.476414       176.2322 
 338   0.0000       6.476414       176.2322 
 339   0.0000       6.503915       176.9805 
 340   0.0000       6.515257       177.2892 
 341   0.0000       6.515257       177.2892 
 342   0.0000       6.550093       178.2371 
 343   0.0000       6.567435       178.7090 
 344   0.0000       6.567435       178.7090 
 345   0.0000       6.584841       179.1826 
 346   0.0000       6.589466       179.3085 
 347   0.0000       6.623001       180.2210 
 348   0.0000       6.623001       180.2210 
 349   0.0000       6.626213       180.3084 
 350   0.0000       6.650875       180.9795 
 351   0.0000       6.662906       181.3069 
 352   0.0000       6.662906       181.3069 
 353   0.0000       6.664614       181.3534 
 354   0.0000       6.664614       181.3534 
 355   0.0000       6.667236       181.4247 
 356   0.0000       6.734572       183.2570 
 357   0.0000       6.751552       183.7191 
 358   0.0000       6.751552       183.7191 
 359   0.0000       6.840373       186.1360 
 360   0.0000       6.851999       186.4524 
 361   0.0000       6.851999       186.4524 
 362   0.0000       6.870187       186.9473 
 363   0.0000       6.870187       186.9473 
 364   0.0000       6.921257       188.3370 
 365   0.0000       6.933737       188.6766 
 366   0.0000       6.974104       189.7750 
 367   0.0000       6.974104       189.7750 
 368   0.0000       6.992432       190.2737 
 369   0.0000       7.034570       191.4204 
 370   0.0000       7.070918       192.4095 
 371   0.0000       7.070918       192.4095 
 372   0.0000       7.074008       192.4935 
 373   0.0000       7.074008       192.4935 
 374   0.0000       7.093547       193.0252 
 375   0.0000       7.093547       193.0252 
 376   0.0000       7.094622       193.0545 
 377   0.0000       7.094622       193.0545 
 378   0.0000       7.133560       194.1140 
 379   0.0000       7.133560       194.1140 
 380   0.0000       7.159574       194.8219 
 381   0.0000       7.162472       194.9008 
 382   0.0000       7.340303       199.7398 
 383   0.0000       7.352611       200.0747 
 384   0.0000       7.359072       200.2505 
 385   0.0000       7.387359       201.0203 
 386   0.0000       7.387359       201.0203 
 387   0.0000       7.391521       201.1335 
 388   0.0000       7.391521       201.1335 
 389   0.0000       7.464920       203.1308 
 390   0.0000       7.480258       203.5482 
 391   0.0000       7.480258       203.5482 
 392   0.0000       7.529108       204.8774 
 393   0.0000       7.585319       206.4070 
 394   0.0000       7.585319       206.4070 
 395   0.0000       7.671087       208.7409 
 396   0.0000       7.695043       209.3928 
 397   0.0000       7.701114       209.5580 
 398   0.0000       7.708691       209.7641 
 399   0.0000       7.708691       209.7642 
 400   0.0000       7.754618       211.0139 
 401   0.0000       7.787393       211.9057 
 402   0.0000       7.836259       213.2354 
 403   0.0000       7.836259       213.2354 
 404   0.0000       7.852015       213.6642 
 405   0.0000       7.852433       213.6756 
 406   0.0000       7.852433       213.6756 
 407   0.0000       7.898438       214.9274 
 408   0.0000       7.898438       214.9274 
 409   0.0000       7.919553       215.5020 
 410   0.0000       7.932249       215.8475 
 411   0.0000       7.932249       215.8475 
 412   0.0000       8.007047       217.8828 
 413   0.0000       8.007048       217.8828 
 414   0.0000       8.115639       220.8378 
 415   0.0000       8.129123       221.2047 
 416   0.0000       8.129124       221.2047 
 417   0.0000       8.164033       222.1546 
 418   0.0000       8.164033       222.1546 
 419   0.0000       8.185480       222.7382 
 420   0.0000       8.185480       222.7382 
 421   0.0000       8.246064       224.3868 
 422   0.0000       8.301932       225.9070 
 423   0.0000       8.301932       225.9070 
 424   0.0000       8.305441       226.0025 
 425   0.0000       8.305441       226.0025 
 426   0.0000       8.376805       227.9445 
 427   0.0000       8.433836       229.4963 
 428   0.0000       8.438381       229.6200 
 429   0.0000       8.467029       230.3996 
 430   0.0000       8.474664       230.6073 
 431   0.0000       8.519293       231.8217 
 432   0.0000       8.519293       231.8218 
 433   0.0000       8.526870       232.0279 
 434   0.0000       8.530180       232.1180 
 435   0.0000       8.530180       232.1180 
 436   0.0000       8.584623       233.5995 
 437   0.0000       8.584624       233.5995 
 438   0.0000       8.586171       233.6416 
 439   0.0000       8.586171       233.6416 
 440   0.0000       8.660870       235.6743 
 441   0.0000       8.703777       236.8418 
 442   0.0000       8.758481       238.3304 
 443   0.0000       8.758481       238.3304 
 444   0.0000       8.758529       238.3317 
 445   0.0000       8.758529       238.3317 
 446   0.0000       8.768840       238.6123 
 447   0.0000       8.768840       238.6123 
 448   0.0000       8.777009       238.8345 
 449   0.0000       8.777009       238.8346 
 450   0.0000       8.866707       241.2754 
 451   0.0000       8.881304       241.6726 
 452   0.0000       8.881304       241.6726 
 453   0.0000       8.891743       241.9566 
 454   0.0000       8.906151       242.3487 
 455   0.0000       8.906151       242.3487 
 456   0.0000       8.937241       243.1947 
 457   0.0000       8.972543       244.1553 
 458   0.0000       9.094613       247.4770 
 459   0.0000       9.094613       247.4770 
 460   0.0000       9.108026       247.8420 
 461   0.0000       9.142590       248.7825 
 462   0.0000       9.154239       249.0995 
 463   0.0000       9.170816       249.5506 
 464   0.0000       9.170816       249.5506 
 465   0.0000       9.209432       250.6014 
 466   0.0000       9.209432       250.6014 
 467   0.0000       9.225000       251.0250 
 468   0.0000       9.440779       256.8967 
 469   0.0000       9.448226       257.0993 
 470   0.0000       9.484656       258.0906 
 471   0.0000       9.484656       258.0906 
 472   0.0000       9.523872       259.1577 
 473   0.0000       9.523872       259.1577 
 474   0.0000       9.942653       270.5533 
 475   0.0000       9.942653       270.5533 
 476   0.0000       9.999746       272.1069 
 477   0.0000       9.999746       272.1069 
 478   0.0000      10.094271       274.6791 
 479   0.0000      10.140912       275.9482 
 480   0.0000      10.205576       277.7078 
 481   0.0000      10.205576       277.7078 
 482   0.0000      10.213399       277.9207 
 483   0.0000      10.213399       277.9207 
 484   0.0000      10.252417       278.9824 
 485   0.0000      10.328577       281.0549 
 486   0.0000      10.335322       281.2384 
 487   0.0000      10.335322       281.2384 
 488   0.0000      10.468410       284.8599 
 489   0.0000      10.468410       284.8599 
 490   0.0000      10.567748       287.5631 
 491   0.0000      10.567749       287.5631 
 492   0.0000      10.627695       289.1943 
 493   0.0000      10.788272       293.5638 
 494   0.0000      10.812831       294.2321 
 495   0.0000      10.853584       295.3410 
 496   0.0000      10.853584       295.3410 
 497   0.0000      11.148231       303.3588 
 498   0.0000      11.148232       303.3588 
 499   0.0000      11.275374       306.8185 
 500   0.0000      11.408379       310.4378 
 501   0.0000      11.408379       310.4378 
 502   0.0000      11.443500       311.3935 
 503   0.0000      12.387892       337.0917 
 504   0.0000      12.459258       339.0336 
 505   0.0000      13.079637       355.9150 
 506   0.0000      13.079637       355.9150 
 507   0.0000      13.388445       364.3181 
 508   0.0000      13.388446       364.3181 
 509   0.0000      13.832319       376.3965 
 510   0.0000      28.856224       785.2178 
 511   0.0000      29.509862       803.0042 
 512   0.0000      29.509862       803.0042 
 513   0.0000      30.014204       816.7280 
 514   0.0000      30.014204       816.7280 
 515   0.0000      30.362335       826.2011 
 516   0.0000     149.333007      4063.5577 
 517   0.0000     149.950954      4080.3729 
 518   0.0000     149.950954      4080.3729 
 519   0.0000     150.430578      4093.4241 
 520   0.0000     150.430578      4093.4241 
 521   0.0000     150.805800      4103.6344 

                    ********************************
                    * MULLIKEN POPULATION ANALYSIS *
                    ********************************

-----------------------
MULLIKEN ATOMIC CHARGES
-----------------------
   0 C :   -0.113675
   1 C :   -0.113676
   2 C :   -0.113676
   3 C :   -0.113675
   4 C :   -0.113676
   5 C :   -0.113676
   6 H :    0.113676
   7 H :    0.113676
   8 H :    0.113676
   9 H :    0.113676
  10 H :    0.113676
  11 H :    0.113676
Sum of atomic charges:   -0.0000000

--------------------------------
MULLIKEN REDUCED ORBITAL CHARGES
--------------------------------
  0 C s       :     3.245216  s :     3.245216
      pz      :     0.939897  p :     2.739932
      px      :     0.932844
      py      :     0.867191
      dz2     :     0.003608  d :     0.113238
      dxz     :     0.006861
      dyz     :     0.032732
      dx2y2   :     0.045220
      dxy     :     0.024817
      f0      :     0.002342  f :     0.014158
      f+1     :     0.001067
      f-1     :     0.000842
      f+2     :     0.000560
      f-2     :     0.002605
      f+3     :     0.002119
      f-3     :     0.004624
      g0      :     0.000038  g :     0.001130
      g+1     :     0.000056
      g-1     :     0.000113
      g+2     :     0.000058
      g-2     :     0.000085
      g+3     :     0.000163
      g-3     :     0.000001
      g+4     :     0.000343
      g-4     :     0.000273
  1 C s       :     3.245219  s :     3.245219
      pz      :     0.939897  p :     2.739931
      px      :     0.883605
      py      :     0.916430
      dz2     :     0.003608  d :     0.113238
      dxz     :     0.026264
      dyz     :     0.013329
      dx2y2   :     0.029917
      dxy     :     0.040120
      f0      :     0.002342  f :     0.014158
      f+1     :     0.000898
      f-1     :     0.001011
      f+2     :     0.002094
      f-2     :     0.001071
      f+3     :     0.002119
      f-3     :     0.004624
      g0      :     0.000038  g :     0.001130
      g+1     :     0.000099
      g-1     :     0.000070
      g+2     :     0.000078
      g-2     :     0.000065
      g+3     :     0.000163
      g-3     :     0.000001
      g+4     :     0.000290
      g-4     :     0.000325
  2 C s       :     3.245219  s :     3.245219
      pz      :     0.939897  p :     2.739931
      px      :     0.883605
      py      :     0.916430
      dz2     :     0.003608  d :     0.113238
      dxz     :     0.026264
      dyz     :     0.013329
      dx2y2   :     0.029917
      dxy     :     0.040120
      f0      :     0.002342  f :     0.014158
      f+1     :     0.000898
      f-1     :     0.001011
      f+2     :     0.002094
      f-2     :     0.001071
      f+3     :     0.002119
      f-3     :     0.004624
      g0      :     0.000038  g :     0.001130
      g+1     :     0.000099
      g-1     :     0.000070
      g+2     :     0.000078
      g-2     :     0.000065
      g+3     :     0.000163
      g-3     :     0.000001
      g+4     :     0.000290
      g-4     :     0.000325
  3 C s       :     3.245216  s :     3.245216
      pz      :     0.939897  p :     2.739932
      px      :     0.932844
      py      :     0.867191
      dz2     :     0.003608  d :     0.113238
      dxz     :     0.006861
      dyz     :     0.032732
      dx2y2   :     0.045220
      dxy     :     0.024817
      f0      :     0.002342  f :     0.014158
      f+1     :     0.001067
      f-1     :     0.000842
      f+2     :     0.000560
      f-2     :     0.002605
      f+3     :     0.002119
      f-3     :     0.004624
      g0      :     0.000038  g :     0.001130
      g+1     :     0.000056
      g-1     :     0.000113
      g+2     :     0.000058
      g-2     :     0.000085
      g+3     :     0.000163
      g-3     :     0.000001
      g+4     :     0.000343
      g-4     :     0.000273
  4 C s       :     3.245219  s :     3.245219
      pz      :     0.939897  p :     2.739931
      px      :     0.883605
      py      :     0.916430
      dz2     :     0.003608  d :     0.113238
      dxz     :     0.026264
      dyz     :     0.013329
      dx2y2   :     0.029917
      dxy     :     0.040120
      f0      :     0.002342  f :     0.014158
      f+1     :     0.000898
      f-1     :     0.001011
      f+2     :     0.002094
      f-2     :     0.001071
      f+3     :     0.002119
      f-3     :     0.004624
      g0      :     0.000038  g :     0.001130
      g+1     :     0.000099
      g-1     :     0.000070
      g+2     :     0.000078
      g-2     :     0.000065
      g+3     :     0.000163
      g-3     :     0.000001
      g+4     :     0.000290
      g-4     :     0.000325
  5 C s       :     3.245219  s :     3.245219
      pz      :     0.939897  p :     2.739931
      px      :     0.883605
      py      :     0.916430
      dz2     :     0.003608  d :     0.113238
      dxz     :     0.026264
      dyz     :     0.013329
      dx2y2   :     0.029917
      dxy     :     0.040120
      f0      :     0.002342  f :     0.014158
      f+1     :     0.000898
      f-1     :     0.001011
      f+2     :     0.002094
      f-2     :     0.001071
      f+3     :     0.002119
      f-3     :     0.004624
      g0      :     0.000038  g :     0.001130
      g+1     :     0.000099
      g-1     :     0.000070
      g+2     :     0.000078
      g-2     :     0.000065
      g+3     :     0.000163
      g-3     :     0.000001
      g+4     :     0.000290
      g-4     :     0.000325
  6 H s       :     0.856735  s :     0.856735
      pz      :     0.013300  p :     0.026462
      px      :     0.005124
      py      :     0.008039
      dz2     :     0.000102  d :     0.002949
      dxz     :     0.001243
      dyz     :     0.000042
      dx2y2   :     0.000204
      dxy     :     0.001358
      f0      :     0.000036  f :     0.000177
      f+1     :     0.000006
      f-1     :     0.000005
      f+2     :     0.000047
      f-2     :     0.000002
      f+3     :     0.000010
      f-3     :     0.000071
  7 H s       :     0.856736  s :     0.856736
      pz      :     0.013300  p :     0.026462
      px      :     0.007310
      py      :     0.005852
      dz2     :     0.000102  d :     0.002949
      dxz     :     0.000342
      dyz     :     0.000942
      dx2y2   :     0.001070
      dxy     :     0.000493
      f0      :     0.000036  f :     0.000177
      f+1     :     0.000005
      f-1     :     0.000006
      f+2     :     0.000014
      f-2     :     0.000036
      f+3     :     0.000010
      f-3     :     0.000071
  8 H s       :     0.856736  s :     0.856736
      pz      :     0.013300  p :     0.026462
      px      :     0.007310
      py      :     0.005852
      dz2     :     0.000102  d :     0.002949
      dxz     :     0.000342
      dyz     :     0.000942
      dx2y2   :     0.001070
      dxy     :     0.000493
      f0      :     0.000036  f :     0.000177
      f+1     :     0.000005
      f-1     :     0.000006
      f+2     :     0.000014
      f-2     :     0.000036
      f+3     :     0.000010
      f-3     :     0.000071
  9 H s       :     0.856735  s :     0.856735
      pz      :     0.013300  p :     0.026462
      px      :     0.005124
      py      :     0.008039
      dz2     :     0.000102  d :     0.002949
      dxz     :     0.001243
      dyz     :     0.000042
      dx2y2   :     0.000204
      dxy     :     0.001358
      f0      :     0.000036  f :     0.000177
      f+1     :     0.000006
      f-1     :     0.000005
      f+2     :     0.000047
      f-2     :     0.000002
      f+3     :     0.000010
      f-3     :     0.000071
 10 H s       :     0.856736  s :     0.856736
      pz      :     0.013300  p :     0.026462
      px      :     0.007310
      py      :     0.005852
      dz2     :     0.000102  d :     0.002949
      dxz     :     0.000342
      dyz     :     0.000942
      dx2y2   :     0.001070
      dxy     :     0.000493
      f0      :     0.000036  f :     0.000177
      f+1     :     0.000005
      f-1     :     0.000006
      f+2     :     0.000014
      f-2     :     0.000036
      f+3     :     0.000010
      f-3     :     0.000071
 11 H s       :     0.856736  s :     0.856736
      pz      :     0.013300  p :     0.026462
      px      :     0.007310
      py      :     0.005852
      dz2     :     0.000102  d :     0.002949
      dxz     :     0.000342
      dyz     :     0.000942
      dx2y2   :     0.001070
      dxy     :     0.000493
      f0      :     0.000036  f :     0.000177
      f+1     :     0.000005
      f-1     :     0.000006
      f+2     :     0.000014
      f-2     :     0.000036
      f+3     :     0.000010
      f-3     :     0.000071


                     *******************************
                     * LOEWDIN POPULATION ANALYSIS *
                     *******************************

----------------------
LOEWDIN ATOMIC CHARGES
----------------------
   0 C :    0.064510
   1 C :    0.064510
   2 C :    0.064510
   3 C :    0.064510
   4 C :    0.064510
   5 C :    0.064510
   6 H :   -0.064510
   7 H :   -0.064510
   8 H :   -0.064510
   9 H :   -0.064510
  10 H :   -0.064510
  11 H :   -0.064510

-------------------------------
LOEWDIN REDUCED ORBITAL CHARGES
-------------------------------
  0 C s       :     2.584544  s :     2.584544
      pz      :     0.762175  p :     2.705133
      px      :     0.944255
      py      :     0.998703
      dz2     :     0.039346  d :     0.521985
      dxz     :     0.022265
      dyz     :     0.103637
      dx2y2   :     0.210806
      dxy     :     0.145931
      f0      :     0.006050  f :     0.113031
      f+1     :     0.006722
      f-1     :     0.007431
      f+2     :     0.005189
      f-2     :     0.021202
      f+3     :     0.017076
      f-3     :     0.049361
      g0      :     0.000342  g :     0.010796
      g+1     :     0.000616
      g-1     :     0.001345
      g+2     :     0.001151
      g-2     :     0.001151
      g+3     :     0.000733
      g-3     :     0.000047
      g+4     :     0.003496
      g-4     :     0.001916
  1 C s       :     2.584544  s :     2.584544
      pz      :     0.762175  p :     2.705133
      px      :     0.985091
      py      :     0.957867
      dz2     :     0.039346  d :     0.521985
      dxz     :     0.083294
      dyz     :     0.042608
      dx2y2   :     0.162150
      dxy     :     0.194588
      f0      :     0.006050  f :     0.113031
      f+1     :     0.007254
      f-1     :     0.006899
      f+2     :     0.017199
      f-2     :     0.009193
      f+3     :     0.017076
      f-3     :     0.049361
      g0      :     0.000342  g :     0.010796
      g+1     :     0.001163
      g-1     :     0.000798
      g+2     :     0.001151
      g-2     :     0.001151
      g+3     :     0.000733
      g-3     :     0.000047
      g+4     :     0.002311
      g-4     :     0.003101
  2 C s       :     2.584544  s :     2.584544
      pz      :     0.762175  p :     2.705133
      px      :     0.985091
      py      :     0.957867
      dz2     :     0.039346  d :     0.521985
      dxz     :     0.083294
      dyz     :     0.042608
      dx2y2   :     0.162150
      dxy     :     0.194588
      f0      :     0.006050  f :     0.113031
      f+1     :     0.007254
      f-1     :     0.006899
      f+2     :     0.017199
      f-2     :     0.009193
      f+3     :     0.017076
      f-3     :     0.049361
      g0      :     0.000342  g :     0.010796
      g+1     :     0.001163
      g-1     :     0.000798
      g+2     :     0.001151
      g-2     :     0.001151
      g+3     :     0.000733
      g-3     :     0.000047
      g+4     :     0.002311
      g-4     :     0.003101
  3 C s       :     2.584544  s :     2.584544
      pz      :     0.762175  p :     2.705133
      px      :     0.944255
      py      :     0.998703
      dz2     :     0.039346  d :     0.521985
      dxz     :     0.022265
      dyz     :     0.103637
      dx2y2   :     0.210806
      dxy     :     0.145931
      f0      :     0.006050  f :     0.113031
      f+1     :     0.006722
      f-1     :     0.007431
      f+2     :     0.005189
      f-2     :     0.021202
      f+3     :     0.017076
      f-3     :     0.049361
      g0      :     0.000342  g :     0.010796
      g+1     :     0.000616
      g-1     :     0.001345
      g+2     :     0.001151
      g-2     :     0.001151
      g+3     :     0.000733
      g-3     :     0.000047
      g+4     :     0.003496
      g-4     :     0.001916
  4 C s       :     2.584544  s :     2.584544
      pz      :     0.762175  p :     2.705133
      px      :     0.985091
      py      :     0.957867
      dz2     :     0.039346  d :     0.521985
      dxz     :     0.083294
      dyz     :     0.042608
      dx2y2   :     0.162150
      dxy     :     0.194588
      f0      :     0.006050  f :     0.113031
      f+1     :     0.007254
      f-1     :     0.006899
      f+2     :     0.017199
      f-2     :     0.009193
      f+3     :     0.017076
      f-3     :     0.049361
      g0      :     0.000342  g :     0.010796
      g+1     :     0.001163
      g-1     :     0.000798
      g+2     :     0.001151
      g-2     :     0.001151
      g+3     :     0.000733
      g-3     :     0.000047
      g+4     :     0.002311
      g-4     :     0.003101
  5 C s       :     2.584544  s :     2.584544
      pz      :     0.762175  p :     2.705133
      px      :     0.985091
      py      :     0.957867
      dz2     :     0.039346  d :     0.521985
      dxz     :     0.083294
      dyz     :     0.042608
      dx2y2   :     0.162150
      dxy     :     0.194588
      f0      :     0.006050  f :     0.113031
      f+1     :     0.007254
      f-1     :     0.006899
      f+2     :     0.017199
      f-2     :     0.009193
      f+3     :     0.017076
      f-3     :     0.049361
      g0      :     0.000342  g :     0.010796
      g+1     :     0.001163
      g-1     :     0.000798
      g+2     :     0.001151
      g-2     :     0.001151
      g+3     :     0.000733
      g-3     :     0.000047
      g+4     :     0.002311
      g-4     :     0.003101
  6 H s       :     0.803380  s :     0.803380
      pz      :     0.054293  p :     0.188891
      px      :     0.092773
      py      :     0.041826
      dz2     :     0.004583  d :     0.063040
      dxz     :     0.019552
      dyz     :     0.000349
      dx2y2   :     0.013324
      dxy     :     0.025232
      f0      :     0.000952  f :     0.009198
      f+1     :     0.000943
      f-1     :     0.000253
      f+2     :     0.001550
      f-2     :     0.000044
      f+3     :     0.001920
      f-3     :     0.003536
  7 H s       :     0.803380  s :     0.803380
      pz      :     0.054293  p :     0.188891
      px      :     0.054562
      py      :     0.080036
      dz2     :     0.004583  d :     0.063040
      dxz     :     0.005150
      dyz     :     0.014751
      dx2y2   :     0.022255
      dxy     :     0.016301
      f0      :     0.000952  f :     0.009198
      f+1     :     0.000426
      f-1     :     0.000770
      f+2     :     0.000421
      f-2     :     0.001174
      f+3     :     0.001920
      f-3     :     0.003536
  8 H s       :     0.803380  s :     0.803380
      pz      :     0.054293  p :     0.188891
      px      :     0.054562
      py      :     0.080036
      dz2     :     0.004583  d :     0.063040
      dxz     :     0.005150
      dyz     :     0.014751
      dx2y2   :     0.022255
      dxy     :     0.016301
      f0      :     0.000952  f :     0.009198
      f+1     :     0.000426
      f-1     :     0.000770
      f+2     :     0.000421
      f-2     :     0.001174
      f+3     :     0.001920
      f-3     :     0.003536
  9 H s       :     0.803380  s :     0.803380
      pz      :     0.054293  p :     0.188891
      px      :     0.092773
      py      :     0.041826
      dz2     :     0.004583  d :     0.063040
      dxz     :     0.019552
      dyz     :     0.000349
      dx2y2   :     0.013324
      dxy     :     0.025232
      f0      :     0.000952  f :     0.009198
      f+1     :     0.000943
      f-1     :     0.000253
      f+2     :     0.001550
      f-2     :     0.000044
      f+3     :     0.001920
      f-3     :     0.003536
 10 H s       :     0.803380  s :     0.803380
      pz      :     0.054293  p :     0.188891
      px      :     0.054562
      py      :     0.080036
      dz2     :     0.004583  d :     0.063040
      dxz     :     0.005150
      dyz     :     0.014751
      dx2y2   :     0.022255
      dxy     :     0.016301
      f0      :     0.000952  f :     0.009198
      f+1     :     0.000426
      f-1     :     0.000770
      f+2     :     0.000421
      f-2     :     0.001174
      f+3     :     0.001920
      f-3     :     0.003536
 11 H s       :     0.803380  s :     0.803380
      pz      :     0.054293  p :     0.188891
      px      :     0.054562
      py      :     0.080036
      dz2     :     0.004583  d :     0.063040
      dxz     :     0.005150
      dyz     :     0.014751
      dx2y2   :     0.022255
      dxy     :     0.016301
      f0      :     0.000952  f :     0.009198
      f+1     :     0.000426
      f-1     :     0.000770
      f+2     :     0.000421
      f-2     :     0.001174
      f+3     :     0.001920
      f-3     :     0.003536


                      *****************************
                      * MAYER POPULATION ANALYSIS *
                      *****************************

  NA   - Mulliken gross atomic population
  ZA   - Total nuclear charge
  QA   - Mulliken gross atomic charge
  VA   - Mayer's total valence
  BVA  - Mayer's bonded valence
  FA   - Mayer's free valence

  ATOM       NA         ZA         QA         VA         BVA        FA
  0 C      6.1137     6.0000    -0.1137     3.8410     3.8410    -0.0000
  1 C      6.1137     6.0000    -0.1137     3.8410     3.8410    -0.0000
  2 C      6.1137     6.0000    -0.1137     3.8410     3.8410     0.0000
  3 C      6.1137     6.0000    -0.1137     3.8410     3.8410     0.0000
  4 C      6.1137     6.0000    -0.1137     3.8410     3.8410    -0.0000
  5 C      6.1137     6.0000    -0.1137     3.8410     3.8410    -0.0000
  6 H      0.8863     1.0000     0.1137     0.9810     0.9810    -0.0000
  7 H      0.8863     1.0000     0.1137     0.9810     0.9810     0.0000
  8 H      0.8863     1.0000     0.1137     0.9810     0.9810    -0.0000
  9 H      0.8863     1.0000     0.1137     0.9810     0.9810    -0.0000
 10 H      0.8863     1.0000     0.1137     0.9810     0.9810     0.0000
 11 H      0.8863     1.0000     0.1137     0.9810     0.9810     0.0000

  Mayer bond orders larger than 0.1
B(  0-C ,  1-C ) :   1.3846 B(  0-C ,  5-C ) :   1.3846 B(  0-C ,  6-H ) :   0.9827 
B(  1-C ,  2-C ) :   1.3846 B(  1-C ,  7-H ) :   0.9827 B(  2-C ,  3-C ) :   1.3846 
B(  2-C ,  8-H ) :   0.9827 B(  3-C ,  4-C ) :   1.3846 B(  3-C ,  9-H ) :   0.9827 
B(  4-C ,  5-C ) :   1.3846 B(  4-C , 10-H ) :   0.9827 B(  5-C , 11-H ) :   0.9827 


-------
TIMINGS
-------

Total SCF time: 0 days 0 hours 36 min 44 sec 

Total time                  ....    2204.596 sec
Sum of individual times     ....    2204.322 sec  (100.0%)

Fock matrix formation       ....    2201.621 sec  ( 99.9%)
Diagonalization             ....       0.598 sec  (  0.0%)
Density matrix formation    ....       0.025 sec  (  0.0%)
Population analysis         ....       0.168 sec  (  0.0%)
Initial guess               ....       1.232 sec  (  0.1%)
Orbital Transformation      ....       0.000 sec  (  0.0%)
Orbital Orthonormalization  ....       0.000 sec  (  0.0%)
DIIS solution               ....       0.135 sec  (  0.0%)
SOSCF solution              ....       0.176 sec  (  0.0%)

-------------------------   --------------------
FINAL SINGLE POINT ENERGY      -230.796863221247
-------------------------   --------------------


                            ***************************************
                            *     ORCA property calculations      *
                            ***************************************

                                    ---------------------
                                    Active property flags
                                    ---------------------
   (+) Dipole Moment


------------------------------------------------------------------------------
                       ORCA ELECTRIC PROPERTIES CALCULATION
------------------------------------------------------------------------------

Dipole Moment Calculation                       ... on
Quadrupole Moment Calculation                   ... off
Polarizability Calculation                      ... off
GBWName                                         ... scf.gbw
Electron density file                           ... scf.scfp.tmp
The origin for moment calculation is the CENTER OF MASS  = (-0.000000,  0.000000  0.000000)

-------------
DIPOLE MOMENT
-------------
                                X             Y             Z
Electronic contribution:      0.00000       0.00000       0.00000
Nuclear contribution   :      0.00000       0.00000       0.00000
                        -----------------------------------------
Total Dipole Moment    :      0.00000       0.00000       0.00000
                        -----------------------------------------
Magnitude (a.u.)       :      0.00000
Magnitude (Debye)      :      0.00000


Timings for individual modules:

Sum of individual times         ...     2205.101 sec (=  36.752 min)
GTO integral calculation        ...        0.489 sec (=   0.008 min)   0.0 %
SCF iterations                  ...     2204.612 sec (=  36.744 min) 100.0 %
                             ****ORCA TERMINATED NORMALLY****
TOTAL RUN TIME: 0 days 0 hours 36 minutes 45 seconds 273 msec
